Data Visualization with ggplot2 (Part 3)
…
Refresher (1)

As a refresher to statistical plots, lets build a scatter plot with an additional statistic layer.

A dataset called movies_small is coded in your workspace. It is a random sample of 1000 observations from the larger movies dataset, thats inside the ggplot2movies package. The dataset contains information on movies from IMDB. The variable votes is the number of IMDB users who have rated a movie and the rating (converted into a categorical variable) is the average rating for the movie.

# Using the sample function to do a random sampling of a dataset
# library(ggplot2movies)
# set.seed(123)
# movies_small <- movies[sample(nrow(movies), 1000), ]
# movies_small$rating <- factor(round(movies_small$rating))

(movies_small <- readRDS(here("datasets/ch1_movies_small.RDS"))) %>% as_tibble()
#> # A tibble: 10,000 x 24
#>    title  year length budget rating votes    r1    r2    r3    r4    r5
#>    <chr> <int>  <int>  <int> <fct>  <int> <dbl> <dbl> <dbl> <dbl> <dbl>
#>  1 Fair~  1946      7     NA 7         16   0     0     0     0     4.5
#>  2 Shel~  2000      4     NA 7         11   0     0     0     0     4.5
#>  3 Hous~  1955     11     NA 6         15  14.5   0     4.5   4.5   0  
#>  4 Thre~  2003     76     NA 8         11   4.5   0     4.5   0     0  
#>  5 Vida~  1963    103     NA 8        103   4.5   4.5   0     4.5   4.5
#>  6 Anli~  1992    107     NA 5         28   4.5   0     4.5   4.5   0  
#>  7 Lovi~  1999     87     NA 4        105  14.5   4.5   4.5   4.5   4.5
#>  8 Toch~  1972     84     NA 8          9   0     0     0     0    14.5
#>  9 Mari~  1994    127     NA 5         37   4.5   4.5  14.5   4.5  24.5
#> 10 Joy ~  1985     94     NA 5         28   4.5   0     4.5  14.5   4.5
#> # ... with 9,990 more rows, and 13 more variables: r6 <dbl>, r7 <dbl>,
#> #   r8 <dbl>, r9 <dbl>, r10 <dbl>, mpaa <chr>, Action <int>,
#> #   Animation <int>, Comedy <int>, Drama <int>, Documentary <int>,
#> #   Romance <int>, Short <int>
…
